<?xml version="1.0" encoding="UTF-8"?><svg xmlns="http://www.w3.org/2000/svg" xmlns:xlink="http://www.w3.org/1999/xlink" contentScriptType="application/ecmascript" contentStyleType="text/css" height="524px" preserveAspectRatio="none" style="width:857px;height:524px;" version="1.1" viewBox="0 0 857 524" width="857px" zoomAndPan="magnify">
    <defs>
        <filter height="300%" id="fr9tgvokkj5mm" width="300%" x="-1" y="-1">
            <feGaussianBlur result="blurOut" stdDeviation="2.0"/>
            <feColorMatrix in="blurOut" result="blurOut2" type="matrix" values="0 0 0 0 0 0 0 0 0 0 0 0 0 0 0 0 0 0 .4 0"/>
            <feOffset dx="4.0" dy="4.0" in="blurOut2" result="blurOut3"/>
            <feBlend in="SourceGraphic" in2="blurOut3" mode="normal"/>
        </filter>
    </defs>
    <g>
        <!--class Persona-->
        <rect fill="#FEFECE" filter="url(#fr9tgvokkj5mm)" height="176.0469" style="stroke: #A80036; stroke-width: 1.5;" width="356" x="6" y="8"/>
        <ellipse cx="153.75" cy="24" fill="#ADD1B2" rx="11" ry="11" style="stroke: #A80036; stroke-width: 1.0;"/>
        <path d="M156.7188,29.6406 Q156.1406,29.9375 155.5,30.0859 Q154.8594,30.2344 154.1563,30.2344 Q151.6563,30.2344 150.3359,28.5859 Q149.0156,26.9375 149.0156,23.8125 Q149.0156,20.6875 150.3359,19.0313 Q151.6563,17.375 154.1563,17.375 Q154.8594,17.375 155.5078,17.5313 Q156.1563,17.6875 156.7188,17.9844 L156.7188,20.7031 Q156.0938,20.125 155.5,19.8516 Q154.9063,19.5781 154.2813,19.5781 Q152.9375,19.5781 152.25,20.6484 Q151.5625,21.7188 151.5625,23.8125 Q151.5625,25.9063 152.25,26.9766 Q152.9375,28.0469 154.2813,28.0469 Q154.9063,28.0469 155.5,27.7734 Q156.0938,27.5 156.7188,26.9219 L156.7188,29.6406 Z "/>
        <text fill="#000000" font-family="sans-serif" font-size="12" lengthAdjust="spacingAndGlyphs" textLength="52" x="174.25" y="28.1543">Persona</text>
        <line style="stroke: #A80036; stroke-width: 1.5;" x1="7" x2="361" y1="40" y2="40"/>
        <rect fill="none" height="6" style="stroke: #C82930; stroke-width: 1.0;" width="6" x="14" y="48.9023"/>
        <text fill="#000000" font-family="sans-serif" font-size="11" lengthAdjust="spacingAndGlyphs" textLength="52" x="26" y="54.2104">String nif</text>
        <rect fill="none" height="6" style="stroke: #C82930; stroke-width: 1.0;" width="6" x="14" y="61.707"/>
        <text fill="#000000" font-family="sans-serif" font-size="11" lengthAdjust="spacingAndGlyphs" textLength="63" x="26" y="67.0151">String nom</text>
        <rect fill="none" height="6" style="stroke: #C82930; stroke-width: 1.0;" width="6" x="14" y="74.5117"/>
        <text fill="#000000" font-family="sans-serif" font-size="11" lengthAdjust="spacingAndGlyphs" textLength="144" x="26" y="79.8198">LocalDate dataNaixement</text>
        <line style="stroke: #A80036; stroke-width: 1.5;" x1="7" x2="361" y1="86.4141" y2="86.4141"/>
        <ellipse cx="17" cy="98.3164" fill="#84BE84" rx="3" ry="3" style="stroke: #038048; stroke-width: 1.0;"/>
        <text fill="#000000" font-family="sans-serif" font-size="11" lengthAdjust="spacingAndGlyphs" textLength="330" x="26" y="100.6245">Persona(String nif, String nom, LocalDate dataNaixement)</text>
        <ellipse cx="17" cy="111.1211" fill="#84BE84" rx="3" ry="3" style="stroke: #038048; stroke-width: 1.0;"/>
        <text fill="#000000" font-family="sans-serif" font-size="11" lengthAdjust="spacingAndGlyphs" textLength="79" x="26" y="113.4292">String getNif()</text>
        <ellipse cx="17" cy="123.9258" fill="#84BE84" rx="3" ry="3" style="stroke: #038048; stroke-width: 1.0;"/>
        <text fill="#000000" font-family="sans-serif" font-size="11" lengthAdjust="spacingAndGlyphs" textLength="90" x="26" y="126.2339">String getNom()</text>
        <ellipse cx="17" cy="136.7305" fill="#84BE84" rx="3" ry="3" style="stroke: #038048; stroke-width: 1.0;"/>
        <text fill="#000000" font-family="sans-serif" font-size="11" lengthAdjust="spacingAndGlyphs" textLength="171" x="26" y="139.0386">LocalDate getDataNaixement()</text>
        <ellipse cx="17" cy="149.5352" fill="#84BE84" rx="3" ry="3" style="stroke: #038048; stroke-width: 1.0;"/>
        <text fill="#000000" font-family="sans-serif" font-size="11" lengthAdjust="spacingAndGlyphs" textLength="91" x="26" y="151.8433">String toString()</text>
        <ellipse cx="17" cy="162.3398" fill="#84BE84" rx="3" ry="3" style="stroke: #038048; stroke-width: 1.0;"/>
        <text fill="#000000" font-family="sans-serif" font-size="11" lengthAdjust="spacingAndGlyphs" textLength="83" x="26" y="164.6479">int hashCode()</text>
        <ellipse cx="17" cy="175.1445" fill="#84BE84" rx="3" ry="3" style="stroke: #038048; stroke-width: 1.0;"/>
        <text fill="#000000" font-family="sans-serif" font-size="11" lengthAdjust="spacingAndGlyphs" textLength="152" x="26" y="177.4526">boolean equals(Object obj)</text>
        <!--class IGestioPersona-->
        <rect fill="#FEFECE" filter="url(#fr9tgvokkj5mm)" height="86.4141" style="stroke: #A80036; stroke-width: 1.5;" width="159" x="396.5" y="53"/>
        <ellipse cx="426.8" cy="69" fill="#B4A7E5" rx="11" ry="11" style="stroke: #A80036; stroke-width: 1.0;"/>
        <path d="M422.7219,64.7656 L422.7219,62.6094 L430.1125,62.6094 L430.1125,64.7656 L427.6438,64.7656 L427.6438,72.8438 L430.1125,72.8438 L430.1125,75 L422.7219,75 L422.7219,72.8438 L425.1906,72.8438 L425.1906,64.7656 L422.7219,64.7656 Z "/>
        <text fill="#000000" font-family="sans-serif" font-size="12" font-style="italic" lengthAdjust="spacingAndGlyphs" textLength="93" x="444.2" y="73.1543">IGestioPersona</text>
        <line style="stroke: #A80036; stroke-width: 1.5;" x1="397.5" x2="554.5" y1="85" y2="85"/>
        <line style="stroke: #A80036; stroke-width: 1.5;" x1="397.5" x2="554.5" y1="93" y2="93"/>
        <text fill="#000000" font-family="sans-serif" font-size="11" lengthAdjust="spacingAndGlyphs" textLength="126" x="402.5" y="107.2104">void afegir(Persona p)</text>
        <text fill="#000000" font-family="sans-serif" font-size="11" lengthAdjust="spacingAndGlyphs" textLength="147" x="402.5" y="120.0151">Persona cercar(String nif)</text>
        <text fill="#000000" font-family="sans-serif" font-size="11" lengthAdjust="spacingAndGlyphs" textLength="128" x="402.5" y="132.8198">List&lt;Persona&gt; llistat()</text>
        <!--class GestioPersona-->
        <rect fill="#FEFECE" filter="url(#fr9tgvokkj5mm)" height="137.6328" style="stroke: #A80036; stroke-width: 1.5;" width="248" x="115" y="244"/>
        <ellipse cx="188.75" cy="260" fill="#ADD1B2" rx="11" ry="11" style="stroke: #A80036; stroke-width: 1.0;"/>
        <path d="M191.7188,265.6406 Q191.1406,265.9375 190.5,266.0859 Q189.8594,266.2344 189.1563,266.2344 Q186.6563,266.2344 185.3359,264.5859 Q184.0156,262.9375 184.0156,259.8125 Q184.0156,256.6875 185.3359,255.0313 Q186.6563,253.375 189.1563,253.375 Q189.8594,253.375 190.5078,253.5313 Q191.1563,253.6875 191.7188,253.9844 L191.7188,256.7031 Q191.0938,256.125 190.5,255.8516 Q189.9063,255.5781 189.2813,255.5781 Q187.9375,255.5781 187.25,256.6484 Q186.5625,257.7188 186.5625,259.8125 Q186.5625,261.9063 187.25,262.9766 Q187.9375,264.0469 189.2813,264.0469 Q189.9063,264.0469 190.5,263.7734 Q191.0938,263.5 191.7188,262.9219 L191.7188,265.6406 Z "/>
        <text fill="#000000" font-family="sans-serif" font-size="12" lengthAdjust="spacingAndGlyphs" textLength="92" x="209.25" y="264.1543">GestioPersona</text>
        <line style="stroke: #A80036; stroke-width: 1.5;" x1="116" x2="362" y1="276" y2="276"/>
        <rect fill="none" height="6" style="stroke: #C82930; stroke-width: 1.0;" width="6" x="123" y="284.9023"/>
        <text fill="#000000" font-family="sans-serif" font-size="11" lengthAdjust="spacingAndGlyphs" textLength="143" x="135" y="290.2104">List&lt;Persona&gt; persones</text>
        <line style="stroke: #A80036; stroke-width: 1.5;" x1="116" x2="362" y1="296.8047" y2="296.8047"/>
        <ellipse cx="126" cy="308.707" fill="#84BE84" rx="3" ry="3" style="stroke: #038048; stroke-width: 1.0;"/>
        <text fill="#000000" font-family="sans-serif" font-size="11" lengthAdjust="spacingAndGlyphs" textLength="92" x="135" y="311.0151">GestioPersona()</text>
        <ellipse cx="126" cy="321.5117" fill="#84BE84" rx="3" ry="3" style="stroke: #038048; stroke-width: 1.0;"/>
        <text fill="#000000" font-family="sans-serif" font-size="11" lengthAdjust="spacingAndGlyphs" textLength="126" x="135" y="323.8198">void afegir(Persona p)</text>
        <ellipse cx="126" cy="334.3164" fill="#84BE84" rx="3" ry="3" style="stroke: #038048; stroke-width: 1.0;"/>
        <text fill="#000000" font-family="sans-serif" font-size="11" lengthAdjust="spacingAndGlyphs" textLength="147" x="135" y="336.6245">Persona cercar(String nif)</text>
        <ellipse cx="126" cy="347.1211" fill="#84BE84" rx="3" ry="3" style="stroke: #038048; stroke-width: 1.0;"/>
        <text fill="#000000" font-family="sans-serif" font-size="11" lengthAdjust="spacingAndGlyphs" textLength="128" x="135" y="349.4292">List&lt;Persona&gt; llistat()</text>
        <rect fill="#F24D5C" height="6" style="stroke: #C82930; stroke-width: 1.0;" width="6" x="123" y="356.9258"/>
        <text fill="#000000" font-family="sans-serif" font-size="11" lengthAdjust="spacingAndGlyphs" textLength="180" x="135" y="362.2339">boolean comprovaNif(String nif)</text>
        <rect fill="#F24D5C" height="6" style="stroke: #C82930; stroke-width: 1.0;" width="6" x="123" y="369.7305"/>
        <text fill="#000000" font-family="sans-serif" font-size="11" lengthAdjust="spacingAndGlyphs" textLength="222" x="135" y="375.0386">boolean comprovaEdat(LocalDate data)</text>
        <!--class GestioPersonaException-->
        <rect fill="#FEFECE" filter="url(#fr9tgvokkj5mm)" height="73.6094" style="stroke: #A80036; stroke-width: 1.5;" width="368" x="453" y="276"/>
        <ellipse cx="556.25" cy="292" fill="#ADD1B2" rx="11" ry="11" style="stroke: #A80036; stroke-width: 1.0;"/>
        <path d="M559.2188,297.6406 Q558.6406,297.9375 558,298.0859 Q557.3594,298.2344 556.6563,298.2344 Q554.1563,298.2344 552.8359,296.5859 Q551.5156,294.9375 551.5156,291.8125 Q551.5156,288.6875 552.8359,287.0313 Q554.1563,285.375 556.6563,285.375 Q557.3594,285.375 558.0078,285.5313 Q558.6563,285.6875 559.2188,285.9844 L559.2188,288.7031 Q558.5938,288.125 558,287.8516 Q557.4063,287.5781 556.7813,287.5781 Q555.4375,287.5781 554.75,288.6484 Q554.0625,289.7188 554.0625,291.8125 Q554.0625,293.9063 554.75,294.9766 Q555.4375,296.0469 556.7813,296.0469 Q557.4063,296.0469 558,295.7734 Q558.5938,295.5 559.2188,294.9219 L559.2188,297.6406 Z "/>
        <text fill="#000000" font-family="sans-serif" font-size="12" lengthAdjust="spacingAndGlyphs" textLength="153" x="576.75" y="296.1543">GestioPersonaException</text>
        <line style="stroke: #A80036; stroke-width: 1.5;" x1="454" x2="820" y1="308" y2="308"/>
        <line style="stroke: #A80036; stroke-width: 1.5;" x1="454" x2="820" y1="316" y2="316"/>
        <ellipse cx="464" cy="327.9023" fill="#84BE84" rx="3" ry="3" style="stroke: #038048; stroke-width: 1.0;"/>
        <text fill="#000000" font-family="sans-serif" font-size="11" lengthAdjust="spacingAndGlyphs" textLength="237" x="473" y="330.2104">GestioPersonaException(String message)</text>
        <ellipse cx="464" cy="340.707" fill="#84BE84" rx="3" ry="3" style="stroke: #038048; stroke-width: 1.0;"/>
        <text fill="#000000" font-family="sans-serif" font-size="11" lengthAdjust="spacingAndGlyphs" textLength="342" x="473" y="343.0151">GestioPersonaException(String message, Throwable cause)</text>
        <!--class DadesPersonaNovalidesException-->
        <rect fill="#FEFECE" filter="url(#fr9tgvokkj5mm)" height="73.6094" style="stroke: #A80036; stroke-width: 1.5;" width="422" x="426" y="442"/>
        <ellipse cx="526.25" cy="458" fill="#ADD1B2" rx="11" ry="11" style="stroke: #A80036; stroke-width: 1.0;"/>
        <path d="M529.2188,463.6406 Q528.6406,463.9375 528,464.0859 Q527.3594,464.2344 526.6563,464.2344 Q524.1563,464.2344 522.8359,462.5859 Q521.5156,460.9375 521.5156,457.8125 Q521.5156,454.6875 522.8359,453.0313 Q524.1563,451.375 526.6563,451.375 Q527.3594,451.375 528.0078,451.5313 Q528.6563,451.6875 529.2188,451.9844 L529.2188,454.7031 Q528.5938,454.125 528,453.8516 Q527.4063,453.5781 526.7813,453.5781 Q525.4375,453.5781 524.75,454.6484 Q524.0625,455.7188 524.0625,457.8125 Q524.0625,459.9063 524.75,460.9766 Q525.4375,462.0469 526.7813,462.0469 Q527.4063,462.0469 528,461.7734 Q528.5938,461.5 529.2188,460.9219 L529.2188,463.6406 Z "/>
        <text fill="#000000" font-family="sans-serif" font-size="12" lengthAdjust="spacingAndGlyphs" textLength="213" x="546.75" y="462.1543">DadesPersonaNovalidesException</text>
        <line style="stroke: #A80036; stroke-width: 1.5;" x1="427" x2="847" y1="474" y2="474"/>
        <line style="stroke: #A80036; stroke-width: 1.5;" x1="427" x2="847" y1="482" y2="482"/>
        <ellipse cx="437" cy="493.9023" fill="#84BE84" rx="3" ry="3" style="stroke: #038048; stroke-width: 1.0;"/>
        <text fill="#000000" font-family="sans-serif" font-size="11" lengthAdjust="spacingAndGlyphs" textLength="291" x="446" y="496.2104">DadesPersonaNovalidesException(String message)</text>
        <ellipse cx="437" cy="506.707" fill="#84BE84" rx="3" ry="3" style="stroke: #038048; stroke-width: 1.0;"/>
        <text fill="#000000" font-family="sans-serif" font-size="11" lengthAdjust="spacingAndGlyphs" textLength="396" x="446" y="509.0151">DadesPersonaNovalidesException(String message, Throwable cause)</text>
        <!--class Exception-->
        <rect fill="#FEFECE" filter="url(#fr9tgvokkj5mm)" height="48" style="stroke: #A80036; stroke-width: 1.5;" width="93" x="590.5" y="72"/>
        <ellipse cx="605.5" cy="88" fill="#ADD1B2" rx="11" ry="11" style="stroke: #A80036; stroke-width: 1.0;"/>
        <path d="M608.4688,93.6406 Q607.8906,93.9375 607.25,94.0859 Q606.6094,94.2344 605.9063,94.2344 Q603.4063,94.2344 602.0859,92.5859 Q600.7656,90.9375 600.7656,87.8125 Q600.7656,84.6875 602.0859,83.0313 Q603.4063,81.375 605.9063,81.375 Q606.6094,81.375 607.2578,81.5313 Q607.9063,81.6875 608.4688,81.9844 L608.4688,84.7031 Q607.8438,84.125 607.25,83.8516 Q606.6563,83.5781 606.0313,83.5781 Q604.6875,83.5781 604,84.6484 Q603.3125,85.7188 603.3125,87.8125 Q603.3125,89.9063 604,90.9766 Q604.6875,92.0469 606.0313,92.0469 Q606.6563,92.0469 607.25,91.7734 Q607.8438,91.5 608.4688,90.9219 L608.4688,93.6406 Z "/>
        <text fill="#000000" font-family="sans-serif" font-size="12" lengthAdjust="spacingAndGlyphs" textLength="61" x="619.5" y="92.1543">Exception</text>
        <line style="stroke: #A80036; stroke-width: 1.5;" x1="591.5" x2="682.5" y1="104" y2="104"/>
        <line style="stroke: #A80036; stroke-width: 1.5;" x1="591.5" x2="682.5" y1="112" y2="112"/>
        <path d="M206.291,184.139 C211.383,204.043 216.722,224.915 221.576,243.887 " fill="none" style="stroke: #A80036; stroke-width: 1.0;"/>
        <path d="M414.572,152.726 C383.961,180.495 346.675,214.32 314.35,243.644 " fill="none" style="stroke: #A80036; stroke-width: 1.0; stroke-dasharray: 7.0,7.0;"/>
        <polygon fill="none" points="409.943,147.474,429.459,139.221,419.35,157.843,409.943,147.474" style="stroke: #A80036; stroke-width: 1.0;"/>
        <path d="M637,140.246 C637,180.108 637,238.588 637,275.976 " fill="none" style="stroke: #A80036; stroke-width: 1.0;"/>
        <polygon fill="none" points="630,140.009,637,120.009,644,140.009,630,140.009" style="stroke: #A80036; stroke-width: 1.0;"/>
        <path d="M637,370.583 C637,394.259 637,421.0725 637,441.9873 " fill="none" style="stroke: #A80036; stroke-width: 1.0;"/>
        <polygon fill="none" points="630,370.397,637,350.397,644,370.397,630,370.397" style="stroke: #A80036; stroke-width: 1.0;"/>
        <!--
@startuml
class Persona {
- String nif
- String nom
- LocalDate dataNaixement
+ Persona(String nif, String nom, LocalDate dataNaixement) 
+ String getNif() 
+ String getNom() 
+ LocalDate getDataNaixement() 
+ String toString()
+ int hashCode()
+ boolean equals(Object obj)
}
interface IGestioPersona {
void afegir(Persona p)
Persona cercar(String nif)
List<Persona> llistat()   
}
class GestioPersona{
- List<Persona> persones
+ GestioPersona()
+ void afegir(Persona p)
+ Persona cercar(String nif)
+ List<Persona> llistat()
- boolean comprovaNif(String nif)
- boolean comprovaEdat(LocalDate data)
}
Persona - - GestioPersona

IGestioPersona <|..GestioPersona
class GestioPersonaException{
+ GestioPersonaException(String message)
+ GestioPersonaException(String message, Throwable cause)
}
class DadesPersonaNovalidesException{
+ DadesPersonaNovalidesException(String message)
+ DadesPersonaNovalidesException(String message, Throwable cause)
}
class Exception{
}
Exception <|- -GestioPersonaException 
GestioPersonaException <|- - DadesPersonaNovalidesException

@enduml

PlantUML version 2017.11(Wed Apr 19 18:18:59 CEST 2017)
(GPL source distribution)
Java Runtime: Java(TM) SE Runtime Environment
JVM: Java HotSpot(TM) 64-Bit Server VM
Java Version: 1.8.0_111-b14
Operating System: Linux
OS Version: 4.15.0-66-generic
Default Encoding: UTF-8
Language: en
Country: US
-->
    </g>
</svg>
